<?xml version="1.0" encoding="UTF-8" standalone="no"?>
<!-- Created with Inkscape (http://www.inkscape.org/) -->

<svg
   xmlns:dc="http://purl.org/dc/elements/1.1/"
   xmlns:cc="http://creativecommons.org/ns#"
   xmlns:rdf="http://www.w3.org/1999/02/22-rdf-syntax-ns#"
   xmlns:svg="http://www.w3.org/2000/svg"
   xmlns="http://www.w3.org/2000/svg"
   xmlns:sodipodi="http://sodipodi.sourceforge.net/DTD/sodipodi-0.dtd"
   xmlns:inkscape="http://www.inkscape.org/namespaces/inkscape"
   width="148mm"
   height="40mm"
   viewBox="0 0 148 40.000002"
   version="1.1"
   id="svg8"
   inkscape:version="0.92.0 r15299"
   sodipodi:docname="networkninjas_logo.svg"
   inkscape:export-filename="C:\Users\Gravity\Documents\workspace inkscape\exported\kunai.png"
   inkscape:export-xdpi="98.933754"
   inkscape:export-ydpi="98.933754">
  <defs
     id="defs2" />
  <sodipodi:namedview
     id="base"
     pagecolor="#ffffff"
     bordercolor="#666666"
     borderopacity="1.0"
     inkscape:pageopacity="0.0"
     inkscape:pageshadow="2"
     inkscape:zoom="1.4"
     inkscape:cx="286.479"
     inkscape:cy="106.15222"
     inkscape:document-units="mm"
     inkscape:current-layer="layer1"
     showgrid="false"
     inkscape:measure-start="435.881,753.574"
     inkscape:measure-end="587.909,752.564"
     inkscape:window-width="1366"
     inkscape:window-height="705"
     inkscape:window-x="-8"
     inkscape:window-y="-8"
     inkscape:window-maximized="1"
     fit-margin-right="-0.1"
     units="mm"
     height="240in" />
  <metadata
     id="metadata5">
    <rdf:RDF>
      <cc:Work
         rdf:about="">
        <dc:format>image/svg+xml</dc:format>
        <dc:type
           rdf:resource="http://purl.org/dc/dcmitype/StillImage" />
        <dc:title></dc:title>
      </cc:Work>
    </rdf:RDF>
  </metadata>
  <g
     inkscape:label="Layer 1"
     inkscape:groupmode="layer"
     id="layer1"
     transform="translate(0,-256.99999)">
    <g
       transform="matrix(0.99988685,-0.01504312,-0.01504312,-0.99988685,1.939637,182.84193)"
       id="g57" />
    <g
       id="g104"
       transform="rotate(0.76883432,-931.29176,141.53565)"
       inkscape:export-filename="C:\Users\Gravity\Documents\workspace inkscape\exported\kunai.png"
       inkscape:export-xdpi="98.933754"
       inkscape:export-ydpi="98.933754" />
    <g
       transform="matrix(0.99990997,-0.01341829,-0.01341829,-0.99990997,1.8153228,183.51379)"
       id="g34"
       inkscape:export-filename="C:\Users\Gravity\Documents\workspace inkscape\exported\kunai.png"
       inkscape:export-xdpi="98.933754"
       inkscape:export-ydpi="98.933754" />
    <ellipse
       id="path132"
       cx="136.01094"
       cy="276.18387"
       rx="9.5438986"
       ry="9.0241814"
       style="fill:#1a1a1a;fill-opacity:0;stroke:#000000;stroke-width:3.0250001;stroke-miterlimit:4;stroke-dasharray:none;stroke-opacity:1"
       inkscape:export-filename="C:\Users\Gravity\Documents\workspace inkscape\exported\favicon_kunai.png"
       inkscape:export-xdpi="2.9610925"
       inkscape:export-ydpi="2.9610925"
       transform="rotate(-0.20006209)" />
    <path
       style="fill:#000000;stroke-width:0.13363476"
       d="m 6.7154917,275.02904 -6.33751597,-0.0466 33.21180927,-8.9178 c 18.266495,-4.90479 33.256992,-8.86597 33.312221,-8.80263 0.05522,0.0633 0.337563,3.78264 0.627414,8.2651 0.289849,4.48246 0.561929,8.43546 0.604629,8.78443 l 0.0776,0.6345 -27.579323,0.0649 c -15.168631,0.0357 -30.431212,0.0439 -33.9168443,0.0182 z"
       id="path46"
       inkscape:connector-curvature="0"
       inkscape:export-filename="C:\Users\Gravity\Documents\workspace inkscape\exported\favicon_kunai.png"
       inkscape:export-xdpi="2.9610925"
       inkscape:export-ydpi="2.9610925" />
    <path
       style="fill:#000000;stroke-width:0.13363476"
       d="M 33.593965,288.39433 0.43741873,279.72987 6.5021457,279.6271 c 3.335599,-0.0566 18.5882213,-0.15491 33.8947113,-0.21858 l 27.829982,-0.11577 -0.0782,1.10276 c -0.0431,0.60652 -0.28595,4.59073 -0.539818,8.8538 -0.387019,6.49897 -0.493622,7.75575 -0.659927,7.78026 -0.109095,0.0161 -15.1188,-3.86977 -33.354899,-8.63522 z"
       id="path48"
       inkscape:connector-curvature="0"
       inkscape:export-filename="C:\Users\Gravity\Documents\workspace inkscape\exported\favicon_kunai.png"
       inkscape:export-xdpi="2.9610925"
       inkscape:export-ydpi="2.9610925" />
    <path
       style="fill:#000000;stroke-width:0.13363476"
       d="m 71.163549,274.90227 c -0.0166,-0.0711 -1.21151,-17.53638 -1.20087,-17.55208 0.006,-0.009 2.86222,2.70546 6.34669,6.03248 l 6.33541,6.04913 0.006,1.70944 c 0.003,0.9402 -0.0313,2.16967 -0.0769,2.73217 l -0.0828,1.02272 -5.65984,0.0198 c -3.1129,0.0109 -5.66333,0.005 -5.66761,-0.0136 z"
       id="path50"
       inkscape:connector-curvature="0"
       inkscape:export-filename="C:\Users\Gravity\Documents\workspace inkscape\exported\favicon_kunai.png"
       inkscape:export-xdpi="2.9610925"
       inkscape:export-ydpi="2.9610925" />
    <path
       style="fill:#000000;stroke-width:0.13363476"
       d="m 70.184799,296.85831 c 0.0289,-0.27278 0.25215,-3.98453 0.49607,-8.24835 0.24393,-4.26383 0.47448,-8.00684 0.51235,-8.31779 l 0.0688,-0.56539 5.65436,-0.0559 5.65436,-0.0559 0.0869,1.06879 c 0.0478,0.58782 0.09,1.83116 0.0936,2.76298 l 0.007,1.69419 -6.31293,6.10672 c -6.04154,5.84419 -6.31067,6.08539 -6.26035,5.61078 z"
       id="path52"
       inkscape:connector-curvature="0"
       inkscape:export-filename="C:\Users\Gravity\Documents\workspace inkscape\exported\favicon_kunai.png"
       inkscape:export-xdpi="2.9610925"
       inkscape:export-ydpi="2.9610925" />
    <path
       style="fill:#000000;stroke-width:0.13363476"
       d="m 85.893369,274.85767 -0.69385,-0.0569 0.068,-2.63283 c 0.0373,-1.44806 0.11779,-2.69018 0.11779,-2.69018 0.0613,-0.0705 38.479191,-0.32868 38.904121,-0.26148 0.29163,0.0461 0.27929,0.0815 -0.29699,0.85202 -0.74683,0.99857 -1.3407,2.40711 -1.54311,3.65993 l -0.15452,0.95643 -13.25516,0.0463 c -7.29033,0.0255 -15.324543,0.0772 -17.853793,0.11494 -2.529228,0.0378 -4.910848,0.043 -5.292458,0.0118 z"
       id="path54"
       inkscape:connector-curvature="0"
       inkscape:export-filename="C:\Users\Gravity\Documents\workspace inkscape\exported\favicon_kunai.png"
       inkscape:export-xdpi="2.9610925"
       inkscape:export-ydpi="2.9610925"
       sodipodi:nodetypes="ccssscccsccc" />
    <path
       style="fill:#000000;stroke-width:0.13363476"
       d="m 89.984397,285.15282 -4.289148,-0.0222 -0.089,-2.70072 c -0.049,-1.4854 -0.0776,-2.71183 -0.0636,-2.72541 0.014,-0.0135 8.361568,-0.0202 18.550171,-0.014 l 18.52471,0.0107 0.0868,0.90063 c 0.11434,1.18533 0.61079,2.60432 1.2838,3.6694 l 0.54404,0.86101 -15.12931,0.0213 c -8.32112,0.0117 -17.059453,0.0114 -19.418483,-8e-4 z"
       id="path56"
       inkscape:connector-curvature="0"
       inkscape:export-filename="C:\Users\Gravity\Documents\workspace inkscape\exported\favicon_kunai.png"
       inkscape:export-xdpi="2.9610925"
       inkscape:export-ydpi="2.9610925" />
    <text
       xml:space="preserve"
       style="font-style:normal;font-weight:normal;font-size:10.58333302px;line-height:6.61458302px;font-family:sans-serif;letter-spacing:0px;word-spacing:0px;fill:#000000;fill-opacity:1;stroke:none;stroke-width:0.26458332"
       x="122.14217"
       y="110.51269"
       id="text870"><tspan
         sodipodi:role="line"
         id="tspan868"
         x="122.14217"
         y="116.86089"
         style="stroke-width:0.26458332" /></text>
    <text
       xml:space="preserve"
       style="font-style:normal;font-weight:normal;font-size:10.58333302px;line-height:6.61458302px;font-family:sans-serif;letter-spacing:0px;word-spacing:0px;fill:#000000;fill-opacity:1;stroke:none;stroke-width:0.26458332"
       x="116.6529"
       y="94.735489"
       id="text992"><tspan
         sodipodi:role="line"
         id="tspan990"
         x="116.6529"
         y="101.08369"
         style="stroke-width:0.26458332" /></text>
  </g>
</svg>
